1
2915
00000100011111110111111001000
01001111111111111110000011100
01000011111111111000111100000
11000011111110101011111110000
11100000100000110101111111000
11110000000000011111111110000
11110000000000001111111001110
11111000000000001111111111110
11111000000000000011111110110
11110100000000000101111110000
11101110200000001111110000000
10101111000000001111110000000
00110011000000000111111000000
01000100000000000001110000000
00001000000000000011110000000
22222022220000222220002222222
20220000220000222200000020002
20202000200000002000000200000
00200000200000002000002201101
00000002200000000000022000010
20000000011002000000000000000
22000200002012100220000000000
20000200020010100000000002020
20002220022002000000200022221
00002000000022000000000022220
00000001000000010200000011110
02000001000100010020000000001
21000000100000000000020000001
21100000020002220000022000002
22220222222222222200022200022
01011111011011100001110001100
11101011110101110010000011100
11000001111000111000011100000
00000001110001000000011110000
11000000100011000000111110000
11000000000011100100101000000
11100000000000001100000000010
00011100000000000010110111110
11111000000000000000110111100
11100000000000000000000110000
10000000000000000001000000000
00000111000000000100010000000
00000011000000000000111000000
11000100000000000000111000000
11101100000000000000100000000
0100130004000027000000000000000000240000000000200027000013
0000002200000000240000000000110014000000000000000000000000
1200100000000000000000000000000023000000000000090000000000
0000000000000000000000000000000000000000000000000000080001
0000000202000000210000000000000000030200000021000000000300
0000000002000000000700000000000001000000000000000000000000
1100000000000000000001000011090000000800000000000000000000
2400000000220000001500001200000000000000000000000000000300
0000000000000000000000000000000000000000040000000014002303
0000000016000000000000000014000000000000000000000027000000
0000000400000000010000040000000900000000000000000027000000
0000000202000022000000040000000000000600000000010000000023
2415000000000000000000000100000000000000001500000102000000
0000000000000000000000000000000000000000000000000000000000
0200250000000800250020000014220020000000000026000000000021
