<?xml version="1.0" encoding="utf-8"?>
<COLLADA xmlns="http://www.collada.org/2005/11/COLLADASchema" version="1.4.1">
  <asset>
    <contributor>
      <author>Blender User</author>
      <authoring_tool>Blender 2.68.0 r58537</authoring_tool>
    </contributor>
    <created>2014-07-08T11:24:05</created>
    <modified>2014-07-08T11:24:05</modified>
    <unit name="meter" meter="1"/>
    <up_axis>Z_UP</up_axis>
  </asset>
  <library_images/>
  <library_effects>
    <effect id="Material_011-effect">
      <profile_COMMON>
        <technique sid="common">
          <phong>
            <emission>
              <color sid="emission">0 0 0 1</color>
            </emission>
            <ambient>
              <color sid="ambient">0 0 0 1</color>
            </ambient>
            <diffuse>
              <color sid="diffuse">0.1866174 0.2703481 0.2971151 1</color>
            </diffuse>
            <specular>
              <color sid="specular">0.25 0.25 0.25 1</color>
            </specular>
            <shininess>
              <float sid="shininess">50</float>
            </shininess>
            <index_of_refraction>
              <float sid="index_of_refraction">1</float>
            </index_of_refraction>
          </phong>
        </technique>
        <extra>
          <technique profile="GOOGLEEARTH">
            <double_sided>1</double_sided>
          </technique>
        </extra>
      </profile_COMMON>
      <extra><technique profile="MAX3D"><double_sided>1</double_sided></technique></extra>
    </effect>
    <effect id="Material_003-effect">
      <profile_COMMON>
        <technique sid="common">
          <phong>
            <emission>
              <color sid="emission">0 0 0 1</color>
            </emission>
            <ambient>
              <color sid="ambient">0 0 0 1</color>
            </ambient>
            <diffuse>
              <color sid="diffuse">0.512 0 0 1</color>
            </diffuse>
            <specular>
              <color sid="specular">0.125 0.125 0.125 1</color>
            </specular>
            <shininess>
              <float sid="shininess">50</float>
            </shininess>
            <index_of_refraction>
              <float sid="index_of_refraction">1</float>
            </index_of_refraction>
          </phong>
        </technique>
        <extra>
          <technique profile="GOOGLEEARTH">
            <double_sided>1</double_sided>
          </technique>
        </extra>
      </profile_COMMON>
      <extra><technique profile="MAX3D"><double_sided>1</double_sided></technique></extra>
    </effect>
    <effect id="Material_005-effect">
      <profile_COMMON>
        <technique sid="common">
          <blinn>
            <emission>
              <color sid="emission">0 0 0 1</color>
            </emission>
            <ambient>
              <color sid="ambient">0 0 0 1</color>
            </ambient>
            <diffuse>
              <color sid="diffuse">0.4983467 0.4846934 0.512 1</color>
            </diffuse>
            <specular>
              <color sid="specular">50 50 50 1</color>
            </specular>
            <shininess>
              <float sid="shininess">50</float>
            </shininess>
            <index_of_refraction>
              <float sid="index_of_refraction">1</float>
            </index_of_refraction>
          </blinn>
        </technique>
        <extra>
          <technique profile="GOOGLEEARTH">
            <double_sided>1</double_sided>
          </technique>
        </extra>
      </profile_COMMON>
      <extra><technique profile="MAX3D"><double_sided>1</double_sided></technique></extra>
    </effect>
    <effect id="Material_007-effect">
      <profile_COMMON>
        <technique sid="common">
          <phong>
            <emission>
              <color sid="emission">0 0 0 1</color>
            </emission>
            <ambient>
              <color sid="ambient">0 0 0 1</color>
            </ambient>
            <diffuse>
              <color sid="diffuse">0.1295034 0.1295034 0.1295034 1</color>
            </diffuse>
            <specular>
              <color sid="specular">0.25 0.25 0.25 1</color>
            </specular>
            <shininess>
              <float sid="shininess">50</float>
            </shininess>
            <index_of_refraction>
              <float sid="index_of_refraction">1</float>
            </index_of_refraction>
          </phong>
        </technique>
        <extra>
          <technique profile="GOOGLEEARTH">
            <double_sided>1</double_sided>
          </technique>
        </extra>
      </profile_COMMON>
      <extra><technique profile="MAX3D"><double_sided>1</double_sided></technique></extra>
    </effect>
    <effect id="Material_001-effect">
      <profile_COMMON>
        <technique sid="common">
          <phong>
            <emission>
              <color sid="emission">0 0 0 1</color>
            </emission>
            <ambient>
              <color sid="ambient">0 0 0 1</color>
            </ambient>
            <diffuse>
              <color sid="diffuse">0.359404 0.3875138 0.4096 1</color>
            </diffuse>
            <specular>
              <color sid="specular">0.125 0.125 0.125 1</color>
            </specular>
            <shininess>
              <float sid="shininess">50</float>
            </shininess>
            <index_of_refraction>
              <float sid="index_of_refraction">1</float>
            </index_of_refraction>
          </phong>
        </technique>
        <extra>
          <technique profile="GOOGLEEARTH">
            <double_sided>1</double_sided>
          </technique>
        </extra>
      </profile_COMMON>
      <extra><technique profile="MAX3D"><double_sided>1</double_sided></technique></extra>
    </effect>
    <effect id="Material_009-effect">
      <profile_COMMON>
        <technique sid="common">
          <phong>
            <emission>
              <color sid="emission">0 0 0 1</color>
            </emission>
            <ambient>
              <color sid="ambient">0 0 0 1</color>
            </ambient>
            <diffuse>
              <color sid="diffuse">0.4096 0.4096 0.4096 1</color>
            </diffuse>
            <specular>
              <color sid="specular">0.125 0.125 0.125 1</color>
            </specular>
            <shininess>
              <float sid="shininess">50</float>
            </shininess>
            <index_of_refraction>
              <float sid="index_of_refraction">1</float>
            </index_of_refraction>
          </phong>
        </technique>
        <extra>
          <technique profile="GOOGLEEARTH">
            <double_sided>1</double_sided>
          </technique>
        </extra>
      </profile_COMMON>
      <extra><technique profile="MAX3D"><double_sided>1</double_sided></technique></extra>
    </effect>
    <effect id="Material_004-effect">
      <profile_COMMON>
        <technique sid="common">
          <phong>
            <emission>
              <color sid="emission">0 0 0 1</color>
            </emission>
            <ambient>
              <color sid="ambient">0 0 0 1</color>
            </ambient>
            <diffuse>
              <color sid="diffuse">0.0409642 0.0409642 0.0409642 1</color>
            </diffuse>
            <specular>
              <color sid="specular">0.125 0.125 0.125 1</color>
            </specular>
            <shininess>
              <float sid="shininess">50</float>
            </shininess>
            <index_of_refraction>
              <float sid="index_of_refraction">1</float>
            </index_of_refraction>
          </phong>
        </technique>
        <extra>
          <technique profile="GOOGLEEARTH">
            <double_sided>1</double_sided>
          </technique>
        </extra>
      </profile_COMMON>
      <extra><technique profile="MAX3D"><double_sided>1</double_sided></technique></extra>
    </effect>
    <effect id="BLUE_001-effect">
      <profile_COMMON>
        <technique sid="common">
          <phong>
            <emission>
              <color sid="emission">0 0 0 1</color>
            </emission>
            <ambient>
              <color sid="ambient">0 0 0 1</color>
            </ambient>
            <diffuse>
              <color sid="diffuse">0.0256 0.088576 0.4096 1</color>
            </diffuse>
            <specular>
              <color sid="specular">0.125 0.125 0.125 1</color>
            </specular>
            <shininess>
              <float sid="shininess">50</float>
            </shininess>
            <index_of_refraction>
              <float sid="index_of_refraction">1</float>
            </index_of_refraction>
          </phong>
        </technique>
        <extra>
          <technique profile="GOOGLEEARTH">
            <double_sided>1</double_sided>
          </technique>
        </extra>
      </profile_COMMON>
      <extra><technique profile="MAX3D"><double_sided>1</double_sided></technique></extra>
    </effect>
    <effect id="Material_006-effect">
      <profile_COMMON>
        <technique sid="common">
          <phong>
            <emission>
              <color sid="emission">0 0 0 1</color>
            </emission>
            <ambient>
              <color sid="ambient">0 0 0 1</color>
            </ambient>
            <diffuse>
              <color sid="diffuse">0.512 0.512 0.512 1</color>
            </diffuse>
            <specular>
              <color sid="specular">0.25 0.25 0.25 1</color>
            </specular>
            <shininess>
              <float sid="shininess">50</float>
            </shininess>
            <index_of_refraction>
              <float sid="index_of_refraction">1</float>
            </index_of_refraction>
          </phong>
        </technique>
        <extra>
          <technique profile="GOOGLEEARTH">
            <double_sided>1</double_sided>
          </technique>
        </extra>
      </profile_COMMON>
      <extra><technique profile="MAX3D"><double_sided>1</double_sided></technique></extra>
    </effect>
    <effect id="Material_010-effect">
      <profile_COMMON>
        <technique sid="common">
          <phong>
            <emission>
              <color sid="emission">0 0 0 1</color>
            </emission>
            <ambient>
              <color sid="ambient">0 0 0 1</color>
            </ambient>
            <diffuse>
              <color sid="diffuse">0.04457139 0.4096 0 1</color>
            </diffuse>
            <specular>
              <color sid="specular">0.125 0.125 0.125 1</color>
            </specular>
            <shininess>
              <float sid="shininess">50</float>
            </shininess>
            <index_of_refraction>
              <float sid="index_of_refraction">1</float>
            </index_of_refraction>
          </phong>
        </technique>
        <extra>
          <technique profile="GOOGLEEARTH">
            <double_sided>1</double_sided>
          </technique>
        </extra>
      </profile_COMMON>
      <extra><technique profile="MAX3D"><double_sided>1</double_sided></technique></extra>
    </effect>
    <effect id="material_2_2-effect">
      <profile_COMMON>
        <technique sid="common">
          <phong>
            <emission>
              <color sid="emission">0 0 0 1</color>
            </emission>
            <ambient>
              <color sid="ambient">0 0 0 1</color>
            </ambient>
            <diffuse>
              <color sid="diffuse">0.02409412 0.08834513 0.4096 1</color>
            </diffuse>
            <specular>
              <color sid="specular">0.125 0.125 0.125 1</color>
            </specular>
            <shininess>
              <float sid="shininess">50</float>
            </shininess>
            <index_of_refraction>
              <float sid="index_of_refraction">1</float>
            </index_of_refraction>
          </phong>
        </technique>
        <extra>
          <technique profile="GOOGLEEARTH">
            <double_sided>1</double_sided>
          </technique>
        </extra>
      </profile_COMMON>
      <extra><technique profile="MAX3D"><double_sided>1</double_sided></technique></extra>
    </effect>
    <effect id="material_3_2-effect">
      <profile_COMMON>
        <technique sid="common">
          <phong>
            <emission>
              <color sid="emission">0 0 0 1</color>
            </emission>
            <ambient>
              <color sid="ambient">0 0 0 1</color>
            </ambient>
            <diffuse>
              <color sid="diffuse">0.512 0.512 0.512 1</color>
            </diffuse>
            <specular>
              <color sid="specular">0.125 0.125 0.125 1</color>
            </specular>
            <shininess>
              <float sid="shininess">50</float>
            </shininess>
            <index_of_refraction>
              <float sid="index_of_refraction">1</float>
            </index_of_refraction>
          </phong>
        </technique>
        <extra>
          <technique profile="GOOGLEEARTH">
            <double_sided>1</double_sided>
          </technique>
        </extra>
      </profile_COMMON>
      <extra><technique profile="MAX3D"><double_sided>1</double_sided></technique></extra>
    </effect>
    <effect id="BLUE-effect">
      <profile_COMMON>
        <technique sid="common">
          <phong>
            <emission>
              <color sid="emission">0 0 0 1</color>
            </emission>
            <ambient>
              <color sid="ambient">0 0 0 1</color>
            </ambient>
            <diffuse>
              <color sid="diffuse">0.02208627 0.0602353 0.3834981 1</color>
            </diffuse>
            <specular>
              <color sid="specular">0.125 0.125 0.125 1</color>
            </specular>
            <shininess>
              <float sid="shininess">50</float>
            </shininess>
            <index_of_refraction>
              <float sid="index_of_refraction">1</float>
            </index_of_refraction>
          </phong>
        </technique>
        <extra>
          <technique profile="GOOGLEEARTH">
            <double_sided>1</double_sided>
          </technique>
        </extra>
      </profile_COMMON>
      <extra><technique profile="MAX3D"><double_sided>1</double_sided></technique></extra>
    </effect>
    <effect id="material_4_8-effect">
      <profile_COMMON>
        <technique sid="common">
          <phong>
            <emission>
              <color sid="emission">0 0 0 1</color>
            </emission>
            <ambient>
              <color sid="ambient">0 0 0 1</color>
            </ambient>
            <diffuse>
              <color sid="diffuse">0.4096 0.4096 0.4096 1</color>
            </diffuse>
            <specular>
              <color sid="specular">0.125 0.125 0.125 1</color>
            </specular>
            <shininess>
              <float sid="shininess">50</float>
            </shininess>
            <index_of_refraction>
              <float sid="index_of_refraction">1</float>
            </index_of_refraction>
          </phong>
        </technique>
        <extra>
          <technique profile="GOOGLEEARTH">
            <double_sided>1</double_sided>
          </technique>
        </extra>
      </profile_COMMON>
      <extra><technique profile="MAX3D"><double_sided>1</double_sided></technique></extra>
    </effect>
    <effect id="Material_008-effect">
      <profile_COMMON>
        <technique sid="common">
          <phong>
            <emission>
              <color sid="emission">0 0 0 1</color>
            </emission>
            <ambient>
              <color sid="ambient">0 0 0 1</color>
            </ambient>
            <diffuse>
              <color sid="diffuse">0.02571063 0.08844816 0.4096 1</color>
            </diffuse>
            <specular>
              <color sid="specular">0.125 0.125 0.125 1</color>
            </specular>
            <shininess>
              <float sid="shininess">50</float>
            </shininess>
            <index_of_refraction>
              <float sid="index_of_refraction">1</float>
            </index_of_refraction>
          </phong>
        </technique>
        <extra>
          <technique profile="GOOGLEEARTH">
            <double_sided>1</double_sided>
          </technique>
        </extra>
      </profile_COMMON>
      <extra><technique profile="MAX3D"><double_sided>1</double_sided></technique></extra>
    </effect>
  </library_effects>
  <library_materials>
    <material id="Material_011-material" name="Material_011">
      <instance_effect url="#Material_011-effect"/>
    </material>
    <material id="Material_003-material" name="Material_003">
      <instance_effect url="#Material_003-effect"/>
    </material>
    <material id="Material_005-material" name="Material_005">
      <instance_effect url="#Material_005-effect"/>
    </material>
    <material id="Material_007-material" name="Material_007">
      <instance_effect url="#Material_007-effect"/>
    </material>
    <material id="Material_001-material" name="Material_001">
      <instance_effect url="#Material_001-effect"/>
    </material>
    <material id="Material_009-material" name="Material_009">
      <instance_effect url="#Material_009-effect"/>
    </material>
    <material id="Material_004-material" name="Material_004">
      <instance_effect url="#Material_004-effect"/>
    </material>
    <material id="BLUE_001-material" name="BLUE_001">
      <instance_effect url="#BLUE_001-effect"/>
    </material>
    <material id="Material_006-material" name="Material_006">
      <instance_effect url="#Material_006-effect"/>
    </material>
    <material id="Material_010-material" name="Material_010">
      <instance_effect url="#Material_010-effect"/>
    </material>
    <material id="material_2_2-material" name="material_2_2">
      <instance_effect url="#material_2_2-effect"/>
    </material>
    <material id="material_3_2-material" name="material_3_2">
      <instance_effect url="#material_3_2-effect"/>
    </material>
    <material id="BLUE-material" name="BLUE">
      <instance_effect url="#BLUE-effect"/>
    </material>
    <material id="material_4_8-material" name="material_4_8">
      <instance_effect url="#material_4_8-effect"/>
    </material>
    <material id="Material_008-material" name="Material_008">
      <instance_effect url="#Material_008-effect"/>
    </material>
  </library_materials>
  <library_geometries>
    <geometry id="Cylinder_014-mesh" name="Cylinder.014">
      <mesh>
        <source id="Cylinder_014-mesh-positions">
          <float_array id="Cylinder_014-mesh-positions-array" count="60">-1.090238 -0.1669616 2.49474 -1.090238 0.291759 2.395227 -1.090237 0.3235309 2.364835 -1.090238 0.3407831 2.052297 -1.090238 -0.163192 2.052297 1.094636 0.3436169 2.049411 1.094635 -0.1708028 2.49767 1.094635 0.2939474 2.396849 1.094636 0.3261389 2.366057 1.094636 -0.1669837 2.049413 1.103375 -0.3062922 2.550766 0.06897401 -0.3085599 2.550764 0.03308337 -0.2215691 2.531128 0.02814215 0.3135319 2.408953 1.100589 0.3147474 2.408954 -1.116749 -0.3094878 2.551497 -0.05951607 -0.311783 2.551498 -0.02328366 -0.2237384 2.53162 -0.02376282 0.3182606 2.407969 -1.107961 0.3175757 2.407968</float_array>
          <technique_common>
            <accessor source="#Cylinder_014-mesh-positions-array" count="20" stride="3">
              <param name="X" type="float"/>
              <param name="Y" type="float"/>
              <param name="Z" type="float"/>
            </accessor>
          </technique_common>
        </source>
        <source id="Cylinder_014-mesh-normals">
          <float_array id="Cylinder_014-mesh-normals-array" count="36">1 -1.32286e-5 1.75499e-5 1 0 -3.05139e-6 1 0 0 -1 -4.62389e-7 -2.13146e-6 -1 1.18993e-5 -1.85313e-5 -1 0 0 2.53177e-4 -0.2226151 -0.9749064 2.67957e-4 -0.2225907 -0.9749119 -4.76818e-4 -0.2200412 -0.9754905 4.84092e-4 -0.2199969 -0.9755005 1.41793e-4 -0.2231223 -0.9747905 -2.80117e-4 -0.2224242 -0.9749499</float_array>
          <technique_common>
            <accessor source="#Cylinder_014-mesh-normals-array" count="12" stride="3">
              <param name="X" type="float"/>
              <param name="Y" type="float"/>
              <param name="Z" type="float"/>
            </accessor>
          </technique_common>
        </source>
        <source id="Cylinder_014-mesh-map-0">
          <float_array id="Cylinder_014-mesh-map-0-array" count="72">0.02121835 0.7409517 0.1695414 0.9716591 0.1837374 0.9565587 0.02121835 0.7409517 0.02121835 0.9797917 0.1695414 0.9716591 0.2308976 0.7391647 0.02121835 0.7409517 0.1837374 0.9565587 0.2308962 0.7391647 0.1837361 0.9565577 0.02121835 0.7409517 0.1837361 0.9565577 0.1693327 0.9716156 0.02121835 0.7409517 0.02121835 0.7409517 0.1693327 0.9716156 0.02121746 0.9797917 0.02410775 0.7232927 0.02244263 0.5221337 0.3689506 0.7222297 0.3697854 0.5507742 0.3689506 0.7222297 0.02244263 0.5221337 0.3699955 0.5507658 0.3583595 0.5226827 0.02318274 0.5220734 0.3580645 0.5229059 0.3697854 0.5507742 0.02244263 0.5221337 0.3703396 0.7236427 0.02318274 0.5220734 0.02454918 0.7234247 0.02318274 0.5220734 0.3703396 0.7236427 0.3699955 0.5507658</float_array>
          <technique_common>
            <accessor source="#Cylinder_014-mesh-map-0-array" count="36" stride="2">
              <param name="S" type="float"/>
              <param name="T" type="float"/>
            </accessor>
          </technique_common>
        </source>
        <source id="Cylinder_014-mesh-map-1">
          <float_array id="Cylinder_014-mesh-map-1-array" count="72">0.4644887 0.2505145 0.5645601 0.3251869 0.5695397 0.3206118 0.4644887 0.2505145 0.4633923 0.3334723 0.5645601 0.3251869 0.585844 0.2498968 0.4644887 0.2505145 0.5695397 0.3206118 0.5858436 0.2498968 0.5695392 0.3206118 0.4644882 0.2505145 0.5695392 0.3206118 0.5645596 0.3251869 0.4644882 0.2505145 0.4644882 0.2505145 0.5645596 0.3251869 0.4633702 0.3330874 0.7002121 0.8398434 0.5674259 0.8444274 0.7004748 0.6132052 0.5857591 0.6130227 0.7004748 0.6132052 0.5674259 0.8444274 0.5857813 0.6130208 0.5671397 0.6206749 0.5674465 0.8444475 0.5671476 0.6206769 0.5857591 0.6130227 0.5674259 0.8444274 0.7004998 0.6132139 0.5674465 0.8444475 0.7001737 0.8398259 0.5674465 0.8444475 0.7004998 0.6132139 0.5857813 0.6130208</float_array>
          <technique_common>
            <accessor source="#Cylinder_014-mesh-map-1-array" count="36" stride="2">
              <param name="S" type="float"/>
              <param name="T" type="float"/>
            </accessor>
          </technique_common>
        </source>
        <vertices id="Cylinder_014-mesh-vertices">
          <input semantic="POSITION" source="#Cylinder_014-mesh-positions"/>
        </vertices>
        <polylist material="Material_011-material" count="12">
          <input semantic="VERTEX" source="#Cylinder_014-mesh-vertices" offset="0"/>
          <input semantic="NORMAL" source="#Cylinder_014-mesh-normals" offset="1"/>
          <input semantic="TEXCOORD" source="#Cylinder_014-mesh-map-0" offset="2" set="0"/>
          <input semantic="TEXCOORD" source="#Cylinder_014-mesh-map-1" offset="2" set="1"/>
          <vcount>3 3 3 3 3 3 3 3 3 3 3 3 </vcount>
          <p>4 0 0 2 0 1 1 0 2 4 1 3 3 1 4 2 1 5 0 2 6 4 2 7 1 2 8 6 3 9 7 3 10 9 3 11 7 4 12 8 4 13 9 4 14 9 5 15 8 5 16 5 5 17 14 6 18 10 6 19 13 6 20 12 7 21 13 7 22 10 7 23 17 8 24 16 8 25 15 8 26 11 9 27 12 9 28 10 9 29 18 10 30 15 10 31 19 10 32 15 11 33 18 11 34 17 11 35</p>
        </polylist>
      </mesh>
      <extra><technique profile="MAYA"><double_sided>1</double_sided></technique></extra>
    </geometry>
  </library_geometries>
  <library_controllers/>
  <library_visual_scenes>
    <visual_scene id="Scene" name="Scene">
      <node id="Body01_009" name="Body01_009" type="NODE">
        <matrix sid="transform">1 0 0 0 0 1 0 0 0 0 1 0 0 0 0 1</matrix>
        <instance_geometry url="#Cylinder_014-mesh">
          <bind_material>
            <technique_common>
              <instance_material symbol="Material_011-material" target="#Material_011-material"/>
              <instance_material symbol="Material_003-material" target="#Material_003-material"/>
              <instance_material symbol="Material_005-material" target="#Material_005-material"/>
              <instance_material symbol="Material_007-material" target="#Material_007-material"/>
              <instance_material symbol="Material_001-material" target="#Material_001-material"/>
              <instance_material symbol="Material_009-material" target="#Material_009-material"/>
              <instance_material symbol="Material_004-material" target="#Material_004-material"/>
              <instance_material symbol="BLUE_001-material" target="#BLUE_001-material"/>
              <instance_material symbol="Material_006-material" target="#Material_006-material"/>
              <instance_material symbol="Material_010-material" target="#Material_010-material"/>
              <instance_material symbol="material_2_2-material" target="#material_2_2-material"/>
              <instance_material symbol="material_3_2-material" target="#material_3_2-material"/>
              <instance_material symbol="BLUE-material" target="#BLUE-material"/>
              <instance_material symbol="material_4_8-material" target="#material_4_8-material"/>
              <instance_material symbol="Material_008-material" target="#Material_008-material"/>
            </technique_common>
          </bind_material>
        </instance_geometry>
      </node>
    </visual_scene>
  </library_visual_scenes>
  <scene>
    <instance_visual_scene url="#Scene"/>
  </scene>
</COLLADA>